HW4. T-tests and ANOVA
…
Two kinds of fillers were used in both experiments, FillerAcceptable and FillerUnacceptable  sentences that included well-formed and ungrammatical structures, respectively. In both tasks the ratio of fillers to actual test structures was 2:1.

Data

suppressMessages(library(tidyverse))

mono_socio <- read_csv2("https://raw.githubusercontent.com/LingData2019/LingData2020/master/data/greek-word-order-mono_socio.txt")
mono <- read_csv2("https://raw.githubusercontent.com/LingData2019/LingData2020/master/data/greek-word-order-mono-acceptability-coded-rt.txt")

see also reading key for the data

mono_socio

## # A tibble: 180 x 4
##    ParticipantID                  TypeOfQuestion QuestionCategory Responce      
##    <chr>                          <chr>          <chr>            <chr>         
##  1 2bc93481d25426f259a0f1a3d5d3e Form           age              58            
##  2 2bc93481d25426f259a0f1a3d5d3e Form           country1         Nicosia       
##  3 2bc93481d25426f259a0f1a3d5d3e Form           country2         Kaimakli,Nico
##  4 2bc93481d25426f259a0f1a3d5d3e Form           education        College       
##  5 2bc93481d25426f259a0f1a3d5d3e Form           handedness       right         
##  6 2bc93481d25426f259a0f1a3d5d3e Form           sex              female        
##  7 4b4c9debd4aedeb1fd3dfc9f1cab3 Form           age              24            
##  8 4b4c9debd4aedeb1fd3dfc9f1cab3 Form           country1         Nicosia       
##  9 4b4c9debd4aedeb1fd3dfc9f1cab3 Form           country2         Nicosia       
## 10 4b4c9debd4aedeb1fd3dfc9f1cab3 Form           education        UniversityDeg
## #  with 170 more rows
…
How many of them are males and females?

Which education levels are mentioned in the dataframe?

How many participants of each education levels are present?

How many left- and right-randed participants are present?

The following functions from tidyverse can be usefult for this problem: filter, group_by, count and distinct. (Another approach is to use pivot_wider.)

Compare you overview with that reported in Table 1 of the article. Sometimes replication data provided by authors does not allow on to reproduce their results. Lets look at another dataframe, mono, that contains results of experiment 1.

mono

## # A tibble: 7,560 x 6
##    ParticipantID  TypeOfQuestion  TypeOfStimuli WordOrder ResponseAccepta    RT
##    <chr>          <chr>           <chr>         <chr>     <chr>            <dbl>
##  1 00e0b159cf5b9 AcceptabilityJ Size-Nationa Congruent Correct           1591
##  2 00e0b159cf5b9 AcceptabilityJ Size-Nationa Incongru Correct           5504
##  3 00e0b159cf5b9 AcceptabilityJ Size-Nationa Congruent Correct           1333
##  4 00e0b159cf5b9 AcceptabilityJ Size-Nationa Incongru Correct           1543
##  5 00e0b159cf5b9 AcceptabilityJ Size-Nationa Congruent Correct           1815
##  6 00e0b159cf5b9 AcceptabilityJ Size-Nationa Incongru Correct           3059
##  7 00e0b159cf5b9 AcceptabilityJ Shape-Color   Congruent Correct           1700
##  8 00e0b159cf5b9 AcceptabilityJ Shape-Color   Incongru Correct           2745
##  9 00e0b159cf5b9 AcceptabilityJ Shape-Color   Congruent Correct           3237
## 10 00e0b159cf5b9 AcceptabilityJ Shape-Color   Incongru Correct           2911
## #  with 7,550 more rows
…
diamonds

## # A tibble: 53,940 x 10
##    carat cut       color clarity depth table price     x     y     z
##    <dbl> <ord>     <ord> <ord>   <dbl> <dbl> <int> <dbl> <dbl> <dbl>
##  1 0.23  Ideal     E     SI2      61.5    55   326  3.95  3.98  2.43
##  2 0.21  Premium   E     SI1      59.8    61   326  3.89  3.84  2.31
##  3 0.23  Good      E     VS1      56.9    65   327  4.05  4.07  2.31
##  4 0.290 Premium   I     VS2      62.4    58   334  4.2   4.23  2.63
##  5 0.31  Good      J     SI2      63.3    58   335  4.34  4.35  2.75
##  6 0.24  Very Good J     VVS2     62.8    57   336  3.94  3.96  2.48
##  7 0.24  Very Good I     VVS1     62.3    57   336  3.95  3.98  2.47
##  8 0.26  Very Good H     SI1      61.9    55   337  4.07  4.11  2.53
##  9 0.22  Fair      E     VS2      65.1    61   337  3.87  3.78  2.49
## 10 0.23  Very Good H     VS1      59.4    61   338  4     4.05  2.39
## #  with 53,930 more rows
…
