Lab11. Correspondence analysis: CA and MCA
…
First, we will do some preprocessing. Here, we join future passives with other passive participles.

ru$MoodTense[ru$Voice == 'pass' & ru$MoodTense == 'indicfut'] <- "partcppast"

Lets look at top-10 of verbs in the dataset

ru %>% 
  group_by(LemmaTranslit) %>% 
  summarize(count=n()) %>%
  arrange(desc(count))

## # A tibble: 5,940 x 2
##    LemmaTranslit count
##    <fct>         <int>
##  1 byt'           2763
##  2 moch'          1125
##  3 stat'           820
##  4 govorit'        525
##  5 skazat'         432
##  6 znat'           334
##  7 imet'           328
##  8 sdelat'         320
##  9 poluchit'       316
## 10 schitat'        305
## #  with 5,930 more rows
…
